{
  "status": "OK",
  "meta": {
    "api-version": "1.0",
    "request-method": "GET",
    "request-path": "/api/offers/sent",
    "parameters": {
      "user-id": "123",
      "page": "1",
      "sort-order": "project-name",
      "order-direction": "desc"
    }
  },
  "offers-sent": {
    "item-count": "8",
    "accept-url": "/offers/accept",
    "delete-url": "/offers/delete",
    "items": [
      {
        "id": "1",
        "project-name": "Test Project",
        "owner": "John Smith",
        "budget": {
          "formatted": "$2,393.83",
          "raw": "2393.83"
        },
        "date-offered": {
          "formatted": "Mar 09, 2014",
          "raw": "2014-03-09"
        }
      },
      {
        "id": "2",
        "project-name": "I Need To Build A Spaceship",
        "owner": "Paul Stevenson",
        "budget": {
          "formatted": "$1,234.00",
          "raw": "1234"
        },
        "date-offered": {
          "formatted": "Feb 10, 2015",
          "raw": "2015-02-10"
        }
      },
      {
        "id": "3",
        "project-name": "I Need To Build A Spaceship IV - New Project",
        "owner": "John Smith",
        "budget": {
          "formatted": "$2,393.83",
          "raw": "2393.83"
        },
        "date-offered": {
          "formatted": "Mar 09, 2014",
          "raw": "2014-03-09"
        }
      },
      {
        "id": "4",
        "project-name": "I Need To Build A Spaceship IV As A Very Long Project Name",
        "owner": "Paul Stevenson",
        "budget": {
          "formatted": "$3,453.00",
          "raw": "3453"
        },
        "date-offered": {
          "formatted": "Jan 21, 2015",
          "raw": "2015-06-21"
        }
      },
      {
        "id": "5",
        "project-name": "I Need To Build A Spaceship V - A Spaceship V",
        "owner": "John P. Smith",
        "budget": {
          "formatted": "$2,393.83",
          "raw": "2393.83"
        },
        "date-offered": {
          "formatted": "Sept 09, 2014",
          "raw": "2014"
        }
      }
    ]
  }
}